
 [13/07/2020 11:08:12 am] - [1594638492] 
Error: System.InvalidCastException: Specified cast is not valid.
   at loadingStation.GUI.Main.Home.<.ctor>b__38_2() in C:\Git\loadingStation\loadingStation\GUI\Main\Home.cs:line 171
   at System.Threading.ThreadHelper.ThreadStart_Context(Object state)
   at System.Threading.ExecutionContext.RunInternal(ExecutionContext executionContext, ContextCallback callback, Object state, Boolean preserveSyncCtx)
   at System.Threading.ExecutionContext.Run(ExecutionContext executionContext, ContextCallback callback, Object state, Boolean preserveSyncCtx)
   at System.Threading.ExecutionContext.Run(ExecutionContext executionContext, ContextCallback callback, Object state)
   at System.Threading.ThreadHelper.ThreadStart()
 [13/07/2020 11:08:12 am] - [1594638492] 
Error: is WARNING! UNEXCEPTION RESTART is